<?xml version="1.0" encoding="utf-8"?>
<!-- Generator: Adobe Illustrator 26.2.1, SVG Export Plug-In . SVG Version: 6.00 Build 0)  -->
<svg version="1.2" baseProfile="tiny" id="Layer_1" xmlns="http://www.w3.org/2000/svg" xmlns:xlink="http://www.w3.org/1999/xlink"
	 x="0px" y="0px" viewBox="0 0 12.6 12.6" overflow="visible" xml:space="preserve">
<g id="Air" display="none">
	<path id="Air_x5F_Element_00000014626385656700619950000004565340517528189371_" display="inline" fill="#333333" d="M11.1,9.9
		l-1.7-3h1.7V6H8.9L6.3,1.4L3.7,6H1.4v0.9h1.7l-1.7,3H11.1z M6.3,3.3L7.8,6H4.7L6.3,3.3z M8.3,6.9L9.6,9H3l1.2-2.1H8.3z"/>
</g>
<g id="Earth" display="none">
	<path id="Air_x5F_Element_00000052816305907958371390000004192918349793175440_" fill="#333333" d="M11.1,11.1l-1.7-3h1.7V7.2H8.9
		L6.3,2.6L3.7,7.2H1.4v0.9h1.7l-1.7,3H11.1z M6.3,4.5l1.5,2.7H4.7L6.3,4.5z M8.3,8.1l1.2,2.1H3l1.2-2.1H8.3z"/>
	<path id="Earth_x5F_Element_00000163046685550678081690000002587041850290545595_" display="inline" fill="#333333" d="M6.3,11.1
		l2.6-4.5h2.3V5.7H9.4l1.7-3H1.4l1.7,3H1.4v0.9h2.3L6.3,11.1z M6.3,9.3L4.7,6.6h3.1L6.3,9.3z M3,3.6h6.6L8.3,5.7H4.2L3,3.6z"/>
</g>
<g id="Fire">
	<path id="Air_x5F_Element_00000170274684687907405410000007472197824612313530_" display="none" fill="#333333" d="M11.1,9.9
		l-1.7-3h1.7V6H8.9L6.3,1.4L3.7,6H1.4v0.9h1.7l-1.7,3H11.1z M6.3,3.3L7.8,6H4.7L6.3,3.3z M8.3,6.9L9.6,9H3l1.2-2.1H8.3z"/>
	<path id="Earth_x5F_Element_00000030488742132926226430000017632341003446160005_" display="none" fill="#333333" d="M6.3,9.9
		l2.6-4.5h2.3V4.5H9.4l1.7-3H1.4l1.7,3H1.4v0.9h2.3L6.3,9.9z M6.3,8.1L4.7,5.4h3.1L6.3,8.1z M3,2.3h6.6L8.3,4.5H4.2L3,2.3z"/>
	<path id="Fire_x5F_Element_00000121988938513886589140000000362318452986269848_" fill="#333333" d="M1.4,9.9h9.7L6.3,1.4L1.4,9.9z
		 M3,9l3.3-5.7L9.6,9L3,9z"/>
</g>
<g id="Water" display="none">
	<path id="Air_x5F_Element_00000183250577188376957750000017988149973020705682_" fill="#333333" d="M11.1,11.1l-1.7-3h1.7V7.2H8.9
		L6.3,2.6L3.7,7.2H1.4v0.9h1.7l-1.7,3H11.1z M6.3,4.5l1.5,2.7H4.7L6.3,4.5z M8.3,8.1l1.2,2.1H3l1.2-2.1H8.3z"/>
	<path id="Earth_x5F_Element_00000118365195109894843060000001137170854574208693_" fill="#333333" d="M6.3,11.1l2.6-4.5h2.3V5.7
		H9.4l1.7-3H1.4l1.7,3H1.4v0.9h2.3L6.3,11.1z M6.3,9.3L4.7,6.6h3.1L6.3,9.3z M3,3.6h6.6L8.3,5.7H4.2L3,3.6z"/>
	<path id="Fire_x5F_Element_00000125590601686623912100000013374609200732050837_" fill="#333333" d="M1.4,11.1h9.7L6.3,2.6
		L1.4,11.1z M3,10.2l3.3-5.7l3.3,5.7L3,10.2z"/>
	<path id="Water_x5F_Element_00000128459869294347135570000016634748187861331127_" display="inline" fill="#333333" d="M11.1,2.6
		H1.4l4.8,8.5L11.1,2.6z M9.6,3.6L6.3,9.3L3,3.6L9.6,3.6z"/>
</g>
</svg>
